LSD/Aula05/simulation/qsim/FlipFlopD_Demo.msim.vcd
$comment
	File created using the following command:
		vcd file FlipFlopD_Demo.msim.vcd -direction
$end
$date
	Mon Mar 13 14:21:57 2023
$end
$version
	ModelSim Version 2020.1
$end
$timescale
	1ps
$end

$scope module flipflopd_vhd_vec_tst $end
$var wire 1 ! clk $end
$var wire 1 " d $end
$var wire 1 # q $end

$scope module i1 $end
$var wire 1 $ gnd $end
$var wire 1 % vcc $end
$var wire 1 & unknown $end
$var wire 1 ' devoe $end
$var wire 1 ( devclrn $end
$var wire 1 ) devpor $end
$var wire 1 * ww_devoe $end
$var wire 1 + ww_devclrn $end
$var wire 1 , ww_devpor $end
$var wire 1 - ww_clk $end
$var wire 1 . ww_d $end
$var wire 1 / ww_q $end
$var wire 1 0 \q~output_o\ $end
$var wire 1 1 \clk~input_o\ $end
$var wire 1 2 \d~input_o\ $end
$var wire 1 3 \q~reg0_q\ $end
$upscope $end
$upscope $end
$enddefinitions $end
#0
$dumpvars
0!
1"
0#
0$
1%
x&
1'
1(
1)
1*
1+
1,
0-
1.
0/
00
01
12
03
$end
#5000
1!
1-
11
13
10
1/
1#
#10000
0!
0"
0-
0.
02
01
#15000
1!
1-
11
03
00
0/
0#
#20000
0!
0-
01
#25000
1!
1-
11
#30000
0!
0-
01
#35000
1!
1-
11
#40000
0!
1"
0-
1.
12
01
#45000
1!
1-
11
13
10
1/
1#
#50000
0!
0"
0-
0.
02
01
#55000
1!
1-
11
03
00
0/
0#
#60000
0!
0-
01
#65000
1!
1-
11
#70000
0!
0-
01
#75000
1!
1-
11
#80000
0!
0-
01
#85000
1!
1-
11
#90000
0!
0-
01
#95000
1!
1-
11
#100000
0!
1"
0-
1.
12
01
#105000
1!
1-
11
13
10
1/
1#
#110000
0!
0"
0-
0.
02
01
#115000
1!
1-
11
03
00
0/
0#
#120000
0!
0-
01
#125000
1!
1-
11
#130000
0!
0-
01
#135000
1!
1-
11
#140000
0!
0-
01
#145000
1!
1-
11
#150000
0!
0-
01
#155000
1!
1-
11
#160000
0!
0-
01
#165000
1!
1-
11
#170000
0!
1"
0-
1.
12
01
#175000
1!
1-
11
13
10
1/
1#
#180000
0!
0-
01
#185000
1!
1-
11
#190000
0!
0-
01
#195000
1!
1-
11
#200000
0!
0"
0-
0.
02
01
#205000
1!
1-
11
03
00
0/
0#
#210000
0!
1"
0-
1.
12
01
#215000
1!
1-
11
13
10
1/
1#
#220000
0!
0"
0-
0.
02
01
#225000
1!
1-
11
03
00
0/
0#
#230000
0!
0-
01
#235000
1!
1-
11
#240000
0!
0-
01
#245000
1!
1-
11
#250000
0!
0-
01
#255000
1!
1-
11
#260000
0!
0-
01
#265000
1!
1-
11
#270000
0!
1"
0-
1.
12
01
#275000
1!
1-
11
13
10
1/
1#
#280000
0!
0"
0-
0.
02
01
#285000
1!
1-
11
03
00
0/
0#
#290000
0!
1"
0-
1.
12
01
#295000
1!
1-
11
13
10
1/
1#
#300000
0!
0"
0-
0.
02
01
#305000
1!
1-
11
03
00
0/
0#
#310000
0!
1"
0-
1.
12
01
#315000
1!
1-
11
13
10
1/
1#
#320000
0!
0-
01
#325000
1!
1-
11
#330000
0!
0"
0-
0.
02
01
#335000
1!
1-
11
03
00
0/
0#
#340000
0!
1"
0-
1.
12
01
#345000
1!
1-
11
13
10
1/
1#
#350000
0!
0"
0-
0.
02
01
#355000
1!
1-
11
03
00
0/
0#
#360000
0!
1"
0-
1.
12
01
#365000
1!
1-
11
13
10
1/
1#
#370000
0!
0-
01
#375000
1!
1-
11
#380000
0!
0"
0-
0.
02
01
#385000
1!
1-
11
03
00
0/
0#
#390000
0!
0-
01
#395000
1!
1-
11
#400000
0!
1"
0-
1.
12
01
#405000
1!
1-
11
13
10
1/
1#
#410000
0!
0"
0-
0.
02
01
#415000
1!
1-
11
03
00
0/
0#
#420000
0!
0-
01
#425000
1!
1-
11
#430000
0!
0-
01
#435000
1!
1-
11
#440000
0!
1"
0-
1.
12
01
#445000
1!
1-
11
13
10
1/
1#
#450000
0!
0"
0-
0.
02
01
#455000
1!
1-
11
03
00
0/
0#
#460000
0!
0-
01
#465000
1!
1-
11
#470000
0!
0-
01
#475000
1!
1-
11
#480000
0!
1"
0-
1.
12
01
#485000
1!
1-
11
13
10
1/
1#
#490000
0!
0"
0-
0.
02
01
#495000
1!
1-
11
03
00
0/
0#
#500000
0!
1"
0-
1.
12
01
#505000
1!
1-
11
13
10
1/
1#
#510000
0!
0"
0-
0.
02
01
#515000
1!
1-
11
03
00
0/
0#
#520000
0!
0-
01
#525000
1!
1-
11
#530000
0!
1"
0-
1.
12
01
#535000
1!
1-
11
13
10
1/
1#
#540000
0!
0"
0-
0.
02
01
#545000
1!
1-
11
03
00
0/
0#
#550000
0!
1"
0-
1.
12
01
#555000
1!
1-
11
13
10
1/
1#
#560000
0!
0-
01
#565000
1!
1-
11
#570000
0!
0-
01
#575000
1!
1-
11
#580000
0!
0-
01
#585000
1!
1-
11
#590000
0!
0"
0-
0.
02
01
#595000
1!
1-
11
03
00
0/
0#
#600000
0!
1"
0-
1.
12
01
#605000
1!
1-
11
13
10
1/
1#
#610000
0!
0-
01
#615000
1!
1-
11
#620000
0!
0-
01
#625000
1!
1-
11
#630000
0!
0-
01
#635000
1!
1-
11
#640000
0!
0-
01
#645000
1!
1-
11
#650000
0!
0"
0-
0.
02
01
#655000
1!
1-
11
03
00
0/
0#
#660000
0!
1"
0-
1.
12
01
#665000
1!
1-
11
13
10
1/
1#
#670000
0!
0-
01
#675000
1!
1-
11
#680000
0!
0"
0-
0.
02
01
#685000
1!
1-
11
03
00
0/
0#
#690000
0!
1"
0-
1.
12
01
#695000
1!
1-
11
13
10
1/
1#
#700000
0!
0"
0-
0.
02
01
#705000
1!
1-
11
03
00
0/
0#
#710000
0!
1"
0-
1.
12
01
#715000
1!
1-
11
13
10
1/
1#
#720000
0!
0-
01
#725000
1!
1-
11
#730000
0!
0"
0-
0.
02
01
#735000
1!
1-
11
03
00
0/
0#
#740000
0!
1"
0-
1.
12
01
#745000
1!
1-
11
13
10
1/
1#
#750000
0!
0"
0-
0.
02
01
#755000
1!
1-
11
03
00
0/
0#
#760000
0!
1"
0-
1.
12
01
#765000
1!
1-
11
13
10
1/
1#
#770000
0!
0-
01
#775000
1!
1-
11
#780000
0!
0"
0-
0.
02
01
#785000
1!
1-
11
03
00
0/
0#
#790000
0!
0-
01
#795000
1!
1-
11
#800000
0!
0-
01
#805000
1!
1-
11
#810000
0!
0-
01
#815000
1!
1-
11
#820000
0!
1"
0-
1.
12
01
#825000
1!
1-
11
13
10
1/
1#
#830000
0!
0-
01
#835000
1!
1-
11
#840000
0!
0-
01
#845000
1!
1-
11
#850000
0!
0-
01
#855000
1!
1-
11
#860000
0!
0"
0-
0.
02
01
#865000
1!
1-
11
03
00
0/
0#
#870000
0!
1"
0-
1.
12
01
#875000
1!
1-
11
13
10
1/
1#
#880000
0!
0-
01
#885000
1!
1-
11
#890000
0!
0"
0-
0.
02
01
#895000
1!
1-
11
03
00
0/
0#
#900000
0!
0-
01
#905000
1!
1-
11
#910000
0!
0-
01
#915000
1!
1-
11
#920000
0!
0-
01
#925000
1!
1-
11
#930000
0!
1"
0-
1.
12
01
#935000
1!
1-
11
13
10
1/
1#
#940000
0!
0"
0-
0.
02
01
#945000
1!
1-
11
03
00
0/
0#
#950000
0!
0-
01
#955000
1!
1-
11
#960000
0!
1"
0-
1.
12
01
#965000
1!
1-
11
13
10
1/
1#
#970000
0!
0-
01
#975000
1!
1-
11
#980000
0!
0"
0-
0.
02
01
#985000
1!
1-
11
03
00
0/
0#
#990000
0!
1"
0-
1.
12
01
#995000
1!
1-
11
13
10
1/
1#
